(module RX433-R03A (layer F.Cu) (tedit 5F002738)
  (fp_text reference REF** (at 0 -2.54) (layer F.SilkS)
    (effects (font (size 1 1) (thickness 0.15)))
  )
  (fp_text value RX433-R03A (at 15.24 0) (layer F.Fab)
    (effects (font (size 1 1) (thickness 0.15)))
  )
  (fp_line (start 30.48 -1.27) (end -2.54 -1.27) (layer F.SilkS) (width 0.15))
  (fp_line (start 30.48 1.27) (end 30.48 -1.27) (layer F.SilkS) (width 0.15))
  (fp_line (start -2.54 1.27) (end 30.48 1.27) (layer F.SilkS) (width 0.15))
  (fp_line (start -2.54 -1.27) (end -2.54 1.27) (layer F.SilkS) (width 0.15))
  (pad 1 thru_hole circle (at 0 0) (size 1.524 1.524) (drill 0.762) (layers *.Cu *.Mask))
  (pad 2 thru_hole circle (at 2.54 0) (size 1.524 1.524) (drill 0.762) (layers *.Cu *.Mask))
  (pad 3 thru_hole circle (at 5.08 0) (size 1.524 1.524) (drill 0.762) (layers *.Cu *.Mask))
  (pad 4 thru_hole circle (at 7.62 0) (size 1.524 1.524) (drill 0.762) (layers *.Cu *.Mask))
)
