(module SM130 (layer F.Cu) (tedit 5F002722)
  (fp_text reference REF** (at 5.08 -2.54) (layer F.SilkS)
    (effects (font (size 1 1) (thickness 0.15)))
  )
  (fp_text value SM130 (at 12.7 -2.54) (layer F.Fab)
    (effects (font (size 1 1) (thickness 0.15)))
  )
  (fp_line (start 1.27 36.83) (end 1.27 -1.27) (layer F.SilkS) (width 0.15))
  (fp_line (start 24.13 36.83) (end 1.27 36.83) (layer F.SilkS) (width 0.15))
  (fp_line (start 24.13 -1.27) (end 24.13 36.83) (layer F.SilkS) (width 0.15))
  (fp_line (start 1.27 -1.27) (end 24.13 -1.27) (layer F.SilkS) (width 0.15))
  (pad 1 thru_hole rect (at 0 0) (size 2.3 1.6) (drill 1) (layers *.Cu *.Mask))
  (pad 2 thru_hole oval (at 0 2.54) (size 2.3 1.6) (drill 1) (layers *.Cu *.Mask))
  (pad 3 thru_hole oval (at 0 5.08) (size 2.3 1.6) (drill 1) (layers *.Cu *.Mask))
  (pad 4 thru_hole oval (at 0 7.62) (size 2.3 1.6) (drill 1) (layers *.Cu *.Mask))
  (pad 5 thru_hole oval (at 0 10.16) (size 2.3 1.6) (drill 1) (layers *.Cu *.Mask))
  (pad 6 thru_hole oval (at 0 12.7) (size 2.3 1.6) (drill 1) (layers *.Cu *.Mask))
  (pad 7 thru_hole oval (at 0 15.24) (size 2.3 1.6) (drill 1) (layers *.Cu *.Mask))
  (pad 8 thru_hole oval (at 0 17.78) (size 2.3 1.6) (drill 1) (layers *.Cu *.Mask))
  (pad 9 thru_hole oval (at 0 20.32) (size 2.3 1.6) (drill 1) (layers *.Cu *.Mask))
  (pad 10 thru_hole oval (at 0 22.86) (size 2.3 1.6) (drill 1) (layers *.Cu *.Mask))
  (pad 11 thru_hole oval (at 0 25.4) (size 2.3 1.6) (drill 1) (layers *.Cu *.Mask))
  (pad 12 thru_hole oval (at 0 27.94) (size 2.3 1.6) (drill 1) (layers *.Cu *.Mask))
  (pad 13 thru_hole oval (at 0 30.48) (size 2.3 1.6) (drill 1) (layers *.Cu *.Mask))
  (pad 14 thru_hole oval (at 0 33.02) (size 2.3 1.6) (drill 1) (layers *.Cu *.Mask))
  (pad 15 thru_hole oval (at 0 35.56) (size 2.3 1.6) (drill 1) (layers *.Cu *.Mask))
  (pad 16 thru_hole oval (at 25.4 35.56) (size 2.3 1.6) (drill 1) (layers *.Cu *.Mask))
  (pad 17 thru_hole oval (at 25.4 33.02) (size 2.3 1.6) (drill 1) (layers *.Cu *.Mask))
  (pad 18 thru_hole oval (at 25.4 30.48) (size 2.3 1.6) (drill 1) (layers *.Cu *.Mask))
  (pad 19 thru_hole oval (at 25.4 27.94) (size 2.3 1.6) (drill 1) (layers *.Cu *.Mask))
  (pad 20 thru_hole oval (at 25.4 25.4) (size 2.3 1.6) (drill 1) (layers *.Cu *.Mask))
  (pad 21 thru_hole oval (at 25.4 22.86) (size 2.3 1.6) (drill 1) (layers *.Cu *.Mask))
  (pad 22 thru_hole oval (at 25.4 20.32) (size 2.3 1.6) (drill 1) (layers *.Cu *.Mask))
  (pad 23 thru_hole oval (at 25.4 17.78) (size 2.3 1.6) (drill 1) (layers *.Cu *.Mask))
  (pad 24 thru_hole oval (at 25.4 15.24) (size 2.3 1.6) (drill 1) (layers *.Cu *.Mask))
  (pad 25 thru_hole oval (at 25.4 12.7) (size 2.3 1.6) (drill 1) (layers *.Cu *.Mask))
  (pad 26 thru_hole oval (at 25.4 10.16) (size 2.3 1.6) (drill 1) (layers *.Cu *.Mask))
  (pad 27 thru_hole oval (at 25.4 7.62) (size 2.3 1.6) (drill 1) (layers *.Cu *.Mask))
  (pad 28 thru_hole oval (at 25.4 5.08) (size 2.3 1.6) (drill 1) (layers *.Cu *.Mask))
  (pad 29 thru_hole oval (at 25.4 2.54) (size 2.3 1.6) (drill 1) (layers *.Cu *.Mask))
  (pad 30 thru_hole oval (at 25.4 0) (size 2.3 1.6) (drill 1) (layers *.Cu *.Mask))
)
